{
  "apps": [
    {
      "name": "[poker_money_counter_bot]",
      "script": "./dist/index.js",
      "watch": ["./", "dist", "./dist", "./dist/*"],
      "log_date_format": "DD.MM.YY HH:mm:ss Z"
    }
  ]
}
